waves/alu_unit.vcd
$date
	Sat May 30 10:10:06 2026
$end
$version
	Icarus Verilog
$end
$timescale
	1ps
$end
$scope module tb_alu_unit $end
$var wire 1 ! zero $end
$var wire 4 " result [3:0] $end
$var wire 1 # overflow $end
$var wire 1 $ negative $end
$var wire 1 % carry $end
$var reg 4 & a [3:0] $end
$var reg 4 ' b [3:0] $end
$var reg 4 ( opcode [3:0] $end
$var integer 32 ) failed [31:0] $end
$var integer 32 * passed [31:0] $end
$var integer 32 + total [31:0] $end
$scope module dut $end
$var wire 4 , a [3:0] $end
$var wire 4 - b [3:0] $end
$var wire 4 . opcode [3:0] $end
$var wire 1 / sub_op $end
$var wire 2 0 shift_sel [1:0] $end
$var wire 4 1 shift_result [3:0] $end
$var wire 1 2 shift_carry $end
$var wire 2 3 logic_sel [1:0] $end
$var wire 4 4 logic_result [3:0] $end
$var wire 4 5 b_arith [3:0] $end
$var wire 4 6 arith_result [3:0] $end
$var wire 1 7 arith_overflow $end
$var wire 1 8 arith_cout $end
$var parameter 4 9 OP_ADD $end
$var parameter 4 : OP_AND $end
$var parameter 4 ; OP_ASR $end
$var parameter 4 < OP_CMP $end
$var parameter 4 = OP_DEC $end
$var parameter 4 > OP_INC $end
$var parameter 4 ? OP_NAND $end
$var parameter 4 @ OP_NOR $end
$var parameter 4 A OP_NOT $end
$var parameter 4 B OP_OR $end
$var parameter 4 C OP_PASS $end
$var parameter 4 D OP_SHL $end
$var parameter 4 E OP_SHR $end
$var parameter 4 F OP_SUB $end
$var parameter 4 G OP_XNOR $end
$var parameter 4 H OP_XOR $end
$var reg 1 % carry $end
$var reg 1 $ negative $end
$var reg 1 # overflow $end
$var reg 4 I result [3:0] $end
$var reg 1 ! zero $end
$scope module u_adder $end
$var wire 4 J a [3:0] $end
$var wire 4 K b [3:0] $end
$var wire 4 L b_in [3:0] $end
$var wire 1 7 overflow $end
$var wire 1 / sub $end
$var wire 4 M result [3:0] $end
$var wire 1 8 cout $end
$var wire 1 N c3 $end
$var wire 1 O c2 $end
$var wire 1 P c1 $end
$scope module FA0 $end
$var wire 1 Q a $end
$var wire 1 R b $end
$var wire 1 / cin $end
$var wire 1 P cout $end
$var wire 1 S sum $end
$upscope $end
$scope module FA1 $end
$var wire 1 T a $end
$var wire 1 U b $end
$var wire 1 P cin $end
$var wire 1 O cout $end
$var wire 1 V sum $end
$upscope $end
$scope module FA2 $end
$var wire 1 W a $end
$var wire 1 X b $end
$var wire 1 O cin $end
$var wire 1 N cout $end
$var wire 1 Y sum $end
$upscope $end
$scope module FA3 $end
$var wire 1 Z a $end
$var wire 1 [ b $end
$var wire 1 N cin $end
$var wire 1 8 cout $end
$var wire 1 \ sum $end
$upscope $end
$upscope $end
$scope module u_logic $end
$var wire 4 ] a [3:0] $end
$var wire 4 ^ b [3:0] $end
$var wire 2 _ logic_op [1:0] $end
$var parameter 2 ` AND_OP $end
$var parameter 2 a NOT_OP $end
$var parameter 2 b OR_OP $end
$var parameter 2 c XOR_OP $end
$var reg 4 d result [3:0] $end
$upscope $end
$scope module u_shift $end
$var wire 4 e a [3:0] $end
$var wire 2 f shift_op [1:0] $end
$var parameter 2 g ASR $end
$var parameter 2 h ROL $end
$var parameter 2 i SHL $end
$var parameter 2 j SHR $end
$var reg 4 k result [3:0] $end
$var reg 1 2 shift_out $end
$upscope $end
$upscope $end
$scope task check $end
$var reg 1 l exp_c $end
$var reg 1 m exp_n $end
$var reg 4 n exp_res [3:0] $end
$var reg 1 o exp_v $end
$var reg 1 p exp_z $end
$var reg 4 q in_a [3:0] $end
$var reg 4 r in_b [3:0] $end
$var reg 4 s in_op [3:0] $end
$var reg 80 t test_name [80:1] $end
$upscope $end
$upscope $end
$enddefinitions $end
$comment Show the parameter values. $end
$dumpall
b1 j
b0 i
b11 h
b10 g
b10 c
b1 b
b11 a
b0 `
b110 H
b1010 G
b1 F
b1100 E
b1011 D
b1111 C
b101 B
b111 A
b1001 @
b1000 ?
b10 >
b11 =
b1110 <
b1101 ;
b100 :
b0 9
$end
#0
$dumpvars
b1000001010001000100010000100000001100110010101100110100001000000010000000100000 t
b0 s
b100 r
b11 q
0p
0o
b111 n
0m
0l
b110 k
b11 f
b11 e
b1100 d
b11 _
b100 ^
b11 ]
0\
0[
0Z
1Y
1X
0W
1V
0U
1T
1S
0R
1Q
0P
0O
0N
b111 M
b100 L
b100 K
b11 J
b111 I
08
07
b111 6
b100 5
b1100 4
b11 3
02
b110 1
b11 0
0/
b0 .
b100 -
b11 ,
b0 +
b0 *
b0 )
b0 (
b100 '
b11 &
0%
0$
0#
b111 "
0!
$end
#10000
1!
1O
0V
1%
1P
18
0#
0S
07
1N
0$
1R
0X
0Y
b0 6
b0 M
0\
b1 L
b1 5
b1 K
1W
1Z
b0 4
b0 d
12
b1111 1
b1111 k
b0 "
b0 I
b1 '
b1 -
b1 ^
b1111 &
b1111 ,
b1111 J
b1111 ]
b1111 e
b1000001010001000100010000100000010001100010101100110001001000000010000000100000 t
1l
1p
b0 n
b1 r
b1111 q
b1 *
b1 +
#20000
1#
17
1$
0!
b1000 "
b1000 I
b1000 6
b1000 M
1\
08
0Z
b1000 4
b1000 d
02
b1110 1
b1110 k
0%
b111 &
b111 ,
b111 J
b111 ]
b111 e
b1000001010001000100010000100000001101110010101100110001001000000010000000100000 t
1m
1o
0l
0p
b1000 n
b111 q
b10 *
b10 +
#30000
1!
0P
0$
0\
07
0R
0S
0V
0O
b0 6
b0 M
0Y
0N
b0 L
b0 5
b0 K
0Q
0T
0W
b1111 4
b1111 d
b0 1
b0 k
0#
b0 "
b0 I
b0 '
b0 -
b0 ^
b0 &
b0 ,
b0 J
b0 ]
b0 e
b1000001010001000100010000100000001100000010101100110000001000000010000000100000 t
0m
0o
1p
b0 n
b0 r
b0 q
b11 *
b11 +
#40000
1%
18
0#
07
1N
0$
0\
1O
0S
1X
1[
1P
0!
b100 "
b100 I
0R
0U
0V
b100 6
b100 M
1Y
1/
b1100 L
b11 5
b11 K
1Q
1T
1W
b1000 4
b1000 d
b1110 1
b1110 k
b1 (
b1 .
b11 '
b11 -
b11 ^
b111 &
b111 ,
b111 J
b111 ]
b111 e
b1010011010101010100001000100000001101110010110100110011001000000010000000100000 t
1l
0p
b100 n
b1 s
b11 r
b111 q
b100 *
b100 +
#50000
1!
18
0$
0#
0\
07
1N
0Y
1U
0X
b0 6
b0 M
0V
1O
b1010 L
b101 5
b101 K
0T
b1010 4
b1010 d
b1010 1
b1010 k
1%
b0 "
b0 I
b101 '
b101 -
b101 ^
b101 &
b101 ,
b101 J
b101 ]
b101 e
b1010011010101010100001000100000001101010010110100110101001000000010000000100000 t
1p
b0 n
b101 r
b101 q
b101 *
b101 +
#60000
08
1S
1$
0!
0#
b1111 "
b1111 I
1\
07
1R
1V
b1111 6
b1111 M
1Y
0N
b1011 L
b100 5
b100 K
1T
0W
b1100 4
b1100 d
b110 1
b110 k
0%
b100 '
b100 -
b100 ^
b11 &
b11 ,
b11 J
b11 ]
b11 e
b1010011010101010100001000100000001100110010110100110100001000000010000000100000 t
1m
0l
0p
b1111 n
b100 r
b11 q
b110 *
b110 +
#70000
0O
0P
0N
1#
1Y
17
0$
1%
18
0R
1X
1S
1V
b111 6
b111 M
0\
b1110 L
b1 5
b1 K
0Q
0T
1Z
b111 4
b111 d
12
b1 1
b1 k
b111 "
b111 I
b1 '
b1 -
b1 ^
b1000 &
b1000 ,
b1000 J
b1000 ]
b1000 e
b1010011010101010100001000100000001011010011100000101101001100010010000000100000 t
0m
1o
b111 n
b1 r
b1000 q
b111 *
b111 +
#80000
1\
1S
07
0X
1O
1$
1N
0R
1U
1[
0P
0V
b1001 6
b1001 M
0Y
0/
b0 3
b0 _
b1010 L
0!
b1010 5
b1010 K
1Q
1T
1W
b1010 4
b1010 d
b1111 1
b1111 k
0#
0%
b1010 "
b1010 I
b100 (
b100 .
b1010 '
b1010 -
b1010 ^
b1111 &
b1111 ,
b1111 J
b1111 ]
b1111 e
b1000001010011100100010000100000010001100010110001000001001000000010000000100000 t
1m
0o
b1010 n
b100 s
b1010 r
b1111 q
b1 )
b1000 +
#90000
08
07
0N
1Y
0O
1V
b1111 6
b1111 M
1\
0U
0[
b0 L
0$
1!
b0 5
b0 K
b0 4
b0 d
b0 "
b0 I
b0 '
b0 -
b0 ^
b1000001010011100100010000100000010001100010110000110000001000000010000000100000 t
0m
1p
b0 n
b0 r
b1000 *
b1001 +
#100000
17
1N
0Y
1U
1X
1V
b1011 6
b1011 M
1\
b110 L
0!
b100 "
b100 I
b110 5
b110 K
0T
0Z
b100 4
b100 d
02
b1010 1
b1010 k
b110 '
b110 -
b110 ^
b101 &
b101 ,
b101 J
b101 ]
b101 e
b1000001010011100100010000100000001101010010110000110110001000000010000000100000 t
0p
b100 n
b110 r
b101 q
b1001 *
b1010 +
#110000
b111 4
b111 d
b1 3
b1 _
b111 "
b111 I
b101 (
b101 .
b1001111010100100010000000100000001101010010110000110110001000000010000000100000 t
b111 n
b101 s
b1010 *
b1011 +
#120000
0V
0\
07
0N
0U
0X
0S
b0 6
b0 M
0Y
b0 L
1!
b0 5
b0 K
0Q
0W
b0 4
b0 d
b0 1
b0 k
b0 "
b0 I
b0 '
b0 -
b0 ^
b0 &
b0 ,
b0 J
b0 ]
b0 e
b1001111010100100010000000100000001100000010110000110000001000000010000000100000 t
1p
b0 n
b0 r
b0 q
b1011 *
b1100 +
#130000
1S
1Y
1R
1X
1V
b1111 6
b1111 M
1\
b101 L
1$
0!
b1111 "
b1111 I
b101 5
b101 K
1T
1Z
b1111 4
b1111 d
12
b101 1
b101 k
b101 '
b101 -
b101 ^
b1010 &
b1010 ,
b1010 J
b1010 ]
b1010 e
b1001111010100100010000000100000010000010010110000110101001000000010000000100000 t
1m
0p
b1111 n
b101 r
b1010 q
b1100 *
b1101 +
#140000
17
1O
18
0$
1!
0S
0V
1Y
b100 6
b100 M
0\
b10 3
b10 _
0R
1U
0X
1[
b1010 L
b1010 5
b1010 K
b0 4
b0 d
b0 "
b0 I
b110 (
b110 .
b1010 '
b1010 -
b1010 ^
b1011000010011110101001000100000010000010010110001000001001000000010000000100000 t
0m
1p
b0 n
b110 s
b1010 r
b1101 *
b1110 +
#150000
07
0O
0N
08
1S
1V
1Y
b1111 6
b1111 M
1\
1R
0U
1X
0[
b101 L
1$
0!
b1111 "
b1111 I
b101 5
b101 K
b1111 4
b1111 d
b101 '
b101 -
b101 ^
b1011000010011110101001000100000010000010010110000110101001000000010000000100000 t
1m
0p
b1111 n
b101 r
b1110 *
b1111 +
#160000
0$
0S
b1010 6
b1010 M
0Y
b11 3
b11 _
0R
0X
b0 L
b0 5
b0 K
b101 4
b101 d
b101 "
b101 I
b111 (
b111 .
b0 '
b0 -
b0 ^
b1001110010011110101010000100000010000010010000000100000001000000010000000100000 t
0m
b101 n
b111 s
b0 r
b1111 *
b10000 +
#170000
1S
b1111 6
b1111 M
1Y
1!
1Q
1W
b0 4
b0 d
b1111 1
b1111 k
b0 "
b0 I
b1111 &
b1111 ,
b1111 J
b1111 ]
b1111 e
b1001110010011110101010000100000010001100010000000100000001000000010000000100000 t
1p
b0 n
b1111 q
b10000 *
b10001 +
#180000
0S
0V
0Y
b0 6
b0 M
0\
1$
0!
b1111 "
b1111 I
0Q
0T
0W
0Z
b1111 4
b1111 d
02
b0 1
b0 k
b0 &
b0 ,
b0 J
b0 ]
b0 e
b1001110010011110101010000100000001100000010000000100000001000000010000000100000 t
1m
0p
b1111 n
b0 q
b10001 *
b10010 +
#190000
1S
b11 6
b11 M
1V
b0 0
b0 f
1Q
1T
b1100 4
b1100 d
b110 1
b110 k
0$
0!
b110 "
b110 I
b1011 (
b1011 .
b11 &
b11 ,
b11 J
b11 ]
b11 e
b1010011010010000100110000100000001100110010000000100000001000000010000000100000 t
0m
b110 n
b1011 s
b11 q
b10010 *
b10011 +
#200000
0V
b1001 6
b1001 M
1\
1%
0T
1Z
b110 4
b110 d
12
b10 1
b10 k
b10 "
b10 I
b1001 &
b1001 ,
b1001 J
b1001 ]
b1001 e
b1010011010010000100110000100000001110010010000000100000001000000010000000100000 t
1l
b10 n
b1001 q
b10011 *
b10100 +
#210000
0S
b1100 6
b1100 M
1Y
02
0$
b1 0
b1 f
0Q
1W
b11 4
b11 d
b110 1
b110 k
0%
b110 "
b110 I
b1100 (
b1100 .
b1100 &
b1100 ,
b1100 J
b1100 ]
b1100 e
b1010011010010000101001000100000010000110010000000100000001000000010000000100000 t
0l
b110 n
b1100 s
b1100 q
b10100 *
b10101 +
#220000
1$
b1000 6
b1000 M
0Y
b10 0
b10 f
0W
b111 4
b111 d
b1100 1
b1100 k
b1100 "
b1100 I
b1101 (
b1101 .
b1000 &
b1000 ,
b1000 J
b1000 ]
b1000 e
b1000001010100110101001000100000001110000010000000100000001000000010000000100000 t
1m
b1100 n
b1101 s
b1000 q
b10101 *
b10110 +
#230000
b11 0
b11 f
1S
1V
1Y
b111 6
b111 M
0\
1Q
1T
1W
0Z
b1000 4
b1000 d
02
b1110 1
b1110 k
0$
b111 "
b111 I
b1111 (
b1111 .
b111 &
b111 ,
b111 J
b111 ]
b111 e
b1010000010000010101001101010011001000000011011100100000001000000010000000100000 t
0m
b111 n
b1111 s
b111 q
b10110 *
b10111 +
#240000
b10111 *
b11000 +
