waves/alu_complete.vcd
$date
	Sat May 30 10:10:06 2026
$end
$version
	Icarus Verilog
$end
$timescale
	1ps
$end
$scope module tb_alu_complete $end
$var wire 1 ! zero $end
$var wire 4 " result [3:0] $end
$var wire 1 # overflow $end
$var wire 1 $ negative $end
$var wire 1 % carry $end
$var reg 4 & a [3:0] $end
$var reg 4 ' b [3:0] $end
$var reg 1 ( exp_carry $end
$var reg 1 ) exp_negative $end
$var reg 1 * exp_overflow $end
$var reg 4 + exp_result [3:0] $end
$var reg 1 , exp_zero $end
$var reg 4 - opcode [3:0] $end
$var reg 5 . wide [4:0] $end
$var integer 32 / failed [31:0] $end
$var integer 32 0 i [31:0] $end
$var integer 32 1 passed [31:0] $end
$var integer 32 2 total [31:0] $end
$var integer 32 3 va [31:0] $end
$var integer 32 4 vb [31:0] $end
$scope module dut $end
$var wire 4 5 a [3:0] $end
$var wire 4 6 b [3:0] $end
$var wire 4 7 opcode [3:0] $end
$var wire 1 8 sub_op $end
$var wire 2 9 shift_sel [1:0] $end
$var wire 4 : shift_result [3:0] $end
$var wire 1 ; shift_carry $end
$var wire 2 < logic_sel [1:0] $end
$var wire 4 = logic_result [3:0] $end
$var wire 4 > b_arith [3:0] $end
$var wire 4 ? arith_result [3:0] $end
$var wire 1 @ arith_overflow $end
$var wire 1 A arith_cout $end
$var parameter 4 B OP_ADD $end
$var parameter 4 C OP_AND $end
$var parameter 4 D OP_ASR $end
$var parameter 4 E OP_CMP $end
$var parameter 4 F OP_DEC $end
$var parameter 4 G OP_INC $end
$var parameter 4 H OP_NAND $end
$var parameter 4 I OP_NOR $end
$var parameter 4 J OP_NOT $end
$var parameter 4 K OP_OR $end
$var parameter 4 L OP_PASS $end
$var parameter 4 M OP_SHL $end
$var parameter 4 N OP_SHR $end
$var parameter 4 O OP_SUB $end
$var parameter 4 P OP_XNOR $end
$var parameter 4 Q OP_XOR $end
$var reg 1 % carry $end
$var reg 1 $ negative $end
$var reg 1 # overflow $end
$var reg 4 R result [3:0] $end
$var reg 1 ! zero $end
$scope module u_adder $end
$var wire 4 S a [3:0] $end
$var wire 4 T b [3:0] $end
$var wire 4 U b_in [3:0] $end
$var wire 1 @ overflow $end
$var wire 1 8 sub $end
$var wire 4 V result [3:0] $end
$var wire 1 A cout $end
$var wire 1 W c3 $end
$var wire 1 X c2 $end
$var wire 1 Y c1 $end
$scope module FA0 $end
$var wire 1 Z a $end
$var wire 1 [ b $end
$var wire 1 8 cin $end
$var wire 1 Y cout $end
$var wire 1 \ sum $end
$upscope $end
$scope module FA1 $end
$var wire 1 ] a $end
$var wire 1 ^ b $end
$var wire 1 Y cin $end
$var wire 1 X cout $end
$var wire 1 _ sum $end
$upscope $end
$scope module FA2 $end
$var wire 1 ` a $end
$var wire 1 a b $end
$var wire 1 X cin $end
$var wire 1 W cout $end
$var wire 1 b sum $end
$upscope $end
$scope module FA3 $end
$var wire 1 c a $end
$var wire 1 d b $end
$var wire 1 W cin $end
$var wire 1 A cout $end
$var wire 1 e sum $end
$upscope $end
$upscope $end
$scope module u_logic $end
$var wire 4 f a [3:0] $end
$var wire 4 g b [3:0] $end
$var wire 2 h logic_op [1:0] $end
$var parameter 2 i AND_OP $end
$var parameter 2 j NOT_OP $end
$var parameter 2 k OR_OP $end
$var parameter 2 l XOR_OP $end
$var reg 4 m result [3:0] $end
$upscope $end
$scope module u_shift $end
$var wire 4 n a [3:0] $end
$var wire 2 o shift_op [1:0] $end
$var parameter 2 p ASR $end
$var parameter 2 q ROL $end
$var parameter 2 r SHL $end
$var parameter 2 s SHR $end
$var reg 4 t result [3:0] $end
$var reg 1 ; shift_out $end
$upscope $end
$upscope $end
$scope task compute_expected $end
$upscope $end
$upscope $end
$enddefinitions $end
$comment Show the parameter values. $end
$dumpall
b1 s
b0 r
b11 q
b10 p
b10 l
b1 k
b11 j
b0 i
b110 Q
b1010 P
b1 O
b1100 N
b1011 M
b1111 L
b101 K
b111 J
b1001 I
b1000 H
b10 G
b11 F
b1110 E
b1101 D
b100 C
b0 B
$end
#0
$dumpvars
b0 t
b11 o
b0 n
b1111 m
b11 h
b0 g
b0 f
0e
0d
0c
0b
0a
0`
0_
0^
0]
0\
0[
0Z
0Y
0X
0W
b0 V
b0 U
b0 T
b0 S
b0 R
0A
0@
b0 ?
b0 >
b1111 =
b11 <
0;
b0 :
b11 9
08
b0 7
b0 6
b0 5
b0 4
b0 3
b0 2
b0 1
b0 0
b0 /
bx .
b0 -
x,
bx +
x*
x)
x(
b0 '
b0 &
0%
0$
0#
b0 "
1!
$end
#10000
0!
b1 "
b1 R
b1 ?
b1 V
1\
1[
b1 U
b1 >
b1 T
b1 '
b1 6
b1 g
b1 4
b1 1
b1 2
b0 .
0)
0*
0(
1,
b0 +
#20000
0\
b10 ?
b10 V
1_
0[
1^
b10 U
b10 >
b10 T
b10 "
b10 R
b10 '
b10 6
b10 g
b10 4
b10 1
b10 2
b1 +
b1 .
0,
#30000
b11 ?
b11 V
1\
1[
b11 U
b11 >
b11 T
b11 "
b11 R
b11 '
b11 6
b11 g
b11 4
b11 1
b11 2
b10 .
b10 +
#40000
0\
0_
b100 ?
b100 V
1b
0[
0^
1a
b100 U
b100 >
b100 T
b100 "
b100 R
b100 '
b100 6
b100 g
b100 4
b100 1
b100 2
b11 .
b11 +
#50000
b101 ?
b101 V
1\
1[
b101 U
b101 >
b101 T
b101 "
b101 R
b101 '
b101 6
b101 g
b101 4
b101 1
b101 2
b100 .
b100 +
#60000
0\
b110 ?
b110 V
1_
0[
1^
b110 U
b110 >
b110 T
b110 "
b110 R
b110 '
b110 6
b110 g
b110 4
b110 1
b110 2
b101 .
b101 +
#70000
b111 ?
b111 V
1\
1[
b111 U
b111 >
b111 T
b111 "
b111 R
b111 '
b111 6
b111 g
b111 4
b111 1
b111 2
b110 .
b110 +
#80000
1$
0\
0_
0b
b1000 ?
b1000 V
1e
0[
0^
0a
1d
b1000 U
b1000 >
b1000 T
b1000 "
b1000 R
b1000 '
b1000 6
b1000 g
b1000 4
b1000 1
b1000 2
b111 .
b111 +
#90000
b1001 ?
b1001 V
1\
1[
b1001 U
b1001 >
b1001 T
b1001 "
b1001 R
b1001 '
b1001 6
b1001 g
b1001 4
b1001 1
b1001 2
1)
b1000 .
b1000 +
#100000
0\
b1010 ?
b1010 V
1_
0[
1^
b1010 U
b1010 >
b1010 T
b1010 "
b1010 R
b1010 '
b1010 6
b1010 g
b1010 4
b1010 1
b1010 2
b1001 .
1)
b1001 +
#110000
b1011 ?
b1011 V
1\
1[
b1011 U
b1011 >
b1011 T
b1011 "
b1011 R
b1011 '
b1011 6
b1011 g
b1011 4
b1011 1
b1011 2
b1010 .
1)
b1010 +
#120000
0\
0_
b1100 ?
b1100 V
1b
0[
0^
1a
b1100 U
b1100 >
b1100 T
b1100 "
b1100 R
b1100 '
b1100 6
b1100 g
b1100 4
b1100 1
b1100 2
b1011 .
1)
b1011 +
#130000
b1101 ?
b1101 V
1\
1[
b1101 U
b1101 >
b1101 T
b1101 "
b1101 R
b1101 '
b1101 6
b1101 g
b1101 4
b1101 1
b1101 2
b1100 .
1)
b1100 +
#140000
0\
b1110 ?
b1110 V
1_
0[
1^
b1110 U
b1110 >
b1110 T
b1110 "
b1110 R
b1110 '
b1110 6
b1110 g
b1110 4
b1110 1
b1110 2
b1101 .
1)
b1101 +
#150000
b1111 ?
b1111 V
1\
1[
b1111 U
b1111 >
b1111 T
b1111 "
b1111 R
b1111 '
b1111 6
b1111 g
b1111 4
b1111 1
b1111 2
b1110 .
1)
b1110 +
#160000
0_
0$
0b
0e
0Y
0[
0^
0a
0d
b1 ?
b1 V
1\
b0 U
b0 >
b0 T
1Z
b1110 =
b1110 m
b10 :
b10 t
b1 "
b1 R
b0 '
b0 6
b0 g
b1 &
b1 5
b1 S
b1 f
b1 n
b1 3
b0 4
b10000 1
b10000 2
b1111 .
1)
b1111 +
#170000
1_
0!
1Y
b10 ?
b10 V
0\
1[
b1 U
b1 >
b1 T
b10 "
b10 R
b1 '
b1 6
b1 g
b1 4
b10001 1
b10001 2
b1 .
0)
b1 +
#180000
0b
0Y
0X
1\
b11 ?
b11 V
1_
0[
1^
b10 U
b10 >
b10 T
b11 "
b11 R
b10 '
b10 6
b10 g
b10 4
b10010 1
b10010 2
b10 .
b10 +
#190000
1b
1X
0!
0_
1Y
b100 ?
b100 V
0\
1[
b11 U
b11 >
b11 T
b100 "
b100 R
b11 '
b11 6
b11 g
b11 4
b10011 1
b10011 2
b11 .
b11 +
#200000
0$
0#
0e
0@
0Y
0X
0W
1\
0_
b101 ?
b101 V
1b
0[
0^
1a
b100 U
b100 >
b100 T
b101 "
b101 R
b100 '
b100 6
b100 g
b100 4
b10100 1
b10100 2
b100 .
b100 +
#210000
1_
1Y
b110 ?
b110 V
0\
1[
b101 U
b101 >
b101 T
b110 "
b110 R
b101 '
b101 6
b101 g
b101 4
b10101 1
b10101 2
b101 .
b101 +
#220000
0$
0#
0e
0@
0W
1b
0Y
0X
1\
b111 ?
b111 V
1_
0[
1^
b110 U
b110 >
b110 T
b111 "
b111 R
b110 '
b110 6
b110 g
b110 4
b10110 1
b10110 2
b110 .
b110 +
#230000
1$
1#
1e
1@
1W
0!
0b
1X
0_
1Y
b1000 ?
b1000 V
0\
1[
b111 U
b111 >
b111 T
b1000 "
b1000 R
b111 '
b111 6
b111 g
b111 4
b10111 1
b10111 2
b111 .
b111 +
#240000
0@
0Y
0X
0W
1$
0%
0A
1\
0_
0b
b1001 ?
b1001 V
1e
0[
0^
0a
1d
b1000 U
b1000 >
b1000 T
0#
b1001 "
b1001 R
b1000 '
b1000 6
b1000 g
b1000 4
b11000 1
b11000 2
1)
1*
b1000 .
b1000 +
#250000
1_
1Y
b1010 ?
b1010 V
0\
1[
b1001 U
b1001 >
b1001 T
b1010 "
b1010 R
b1001 '
b1001 6
b1001 g
b1001 4
b11001 1
b11001 2
b1001 .
1)
0*
b1001 +
#260000
0b
0Y
0X
1\
b1011 ?
b1011 V
1_
0[
1^
b1010 U
b1010 >
b1010 T
b1011 "
b1011 R
b1010 '
b1010 6
b1010 g
b1010 4
b11010 1
b11010 2
b1010 .
1)
b1010 +
#270000
1b
1X
0_
1Y
b1100 ?
b1100 V
0\
1[
b1011 U
b1011 >
b1011 T
b1100 "
b1100 R
b1011 '
b1011 6
b1011 g
b1011 4
b11011 1
b11011 2
b1011 .
1)
b1011 +
#280000
0%
0A
1$
0#
1e
0@
0Y
0X
0W
1\
0_
b1101 ?
b1101 V
1b
0[
0^
1a
b1100 U
b1100 >
b1100 T
b1101 "
b1101 R
b1100 '
b1100 6
b1100 g
b1100 4
b11100 1
b11100 2
b1100 .
1)
b1100 +
#290000
1_
1Y
b1110 ?
b1110 V
0\
1[
b1101 U
b1101 >
b1101 T
b1110 "
b1110 R
b1101 '
b1101 6
b1101 g
b1101 4
b11101 1
b11101 2
b1101 .
1)
b1101 +
#300000
0%
0A
1$
0#
1e
0@
0W
1b
0Y
0X
1\
b1111 ?
b1111 V
1_
0[
1^
b1110 U
b1110 >
b1110 T
b1111 "
b1111 R
b1110 '
b1110 6
b1110 g
b1110 4
b11110 1
b11110 2
b1110 .
1)
b1110 +
#310000
1%
1A
0$
1!
0#
0e
0@
1W
0b
1X
0_
1Y
b0 ?
b0 V
0\
1[
b1111 U
b1111 >
b1111 T
b0 "
b0 R
b1111 '
b1111 6
b1111 g
b1111 4
b11111 1
b11111 2
b1111 .
1)
b1111 +
#320000
0W
0$
0A
0X
0b
0e
0Y
0!
b10 "
b10 R
0[
0^
0a
0d
0\
b10 ?
b10 V
1_
b0 U
b0 >
b0 T
0Z
1]
b1101 =
b1101 m
b100 :
b100 t
0%
b0 '
b0 6
b0 g
b10 &
b10 5
b10 S
b10 f
b10 n
b10 3
b0 4
b100000 1
b100000 2
1,
1(
b10000 .
0)
b0 +
#330000
b11 ?
b11 V
1\
1[
b1 U
b1 >
b1 T
b11 "
b11 R
b1 '
b1 6
b1 g
b1 4
b100001 1
b100001 2
b10 +
b10 .
0(
0,
#340000
1b
0!
1X
0\
b100 ?
b100 V
0_
0[
1^
b10 U
b10 >
b10 T
b100 "
b100 R
b10 '
b10 6
b10 g
b10 4
b100010 1
b100010 2
b11 .
b11 +
#350000
b101 ?
b101 V
1\
1[
b11 U
b11 >
b11 T
b101 "
b101 R
b11 '
b11 6
b11 g
b11 4
b100011 1
b100011 2
b100 .
b100 +
#360000
0$
0#
0e
0@
0X
0W
0\
1_
b110 ?
b110 V
1b
0[
0^
1a
b100 U
b100 >
b100 T
b110 "
b110 R
b100 '
b100 6
b100 g
b100 4
b100100 1
b100100 2
b101 .
b101 +
#370000
b111 ?
b111 V
1\
1[
b101 U
b101 >
b101 T
b111 "
b111 R
b101 '
b101 6
b101 g
b101 4
b100101 1
b100101 2
b110 .
b110 +
#380000
1$
1#
1e
1@
1W
0!
0b
1X
0\
b1000 ?
b1000 V
0_
0[
1^
b110 U
b110 >
b110 T
b1000 "
b1000 R
b110 '
b110 6
b110 g
b110 4
b100110 1
b100110 2
b111 .
b111 +
#390000
b1001 ?
b1001 V
1\
1[
b111 U
b111 >
b111 T
1#
b1001 "
b1001 R
b111 '
b111 6
b111 g
b111 4
b100111 1
b100111 2
1)
1*
b1000 .
b1000 +
#400000
0@
0X
0W
1$
0%
0A
0\
1_
0b
b1010 ?
b1010 V
1e
0[
0^
0a
1d
b1000 U
b1000 >
b1000 T
0#
b1010 "
b1010 R
b1000 '
b1000 6
b1000 g
b1000 4
b101000 1
b101000 2
b1001 .
1)
1*
b1001 +
#410000
b1011 ?
b1011 V
1\
1[
b1001 U
b1001 >
b1001 T
b1011 "
b1011 R
b1001 '
b1001 6
b1001 g
b1001 4
b101001 1
b101001 2
b1010 .
1)
0*
b1010 +
#420000
1b
1X
0\
b1100 ?
b1100 V
0_
0[
1^
b1010 U
b1010 >
b1010 T
b1100 "
b1100 R
b1010 '
b1010 6
b1010 g
b1010 4
b101010 1
b101010 2
b1011 .
1)
b1011 +
#430000
b1101 ?
b1101 V
1\
1[
b1011 U
b1011 >
b1011 T
b1101 "
b1101 R
b1011 '
b1011 6
b1011 g
b1011 4
b101011 1
b101011 2
b1100 .
1)
b1100 +
#440000
0%
0A
1$
0#
1e
0@
0X
0W
0\
1_
b1110 ?
b1110 V
1b
0[
0^
1a
b1100 U
b1100 >
b1100 T
b1110 "
b1110 R
b1100 '
b1100 6
b1100 g
b1100 4
b101100 1
b101100 2
b1101 .
1)
b1101 +
#450000
b1111 ?
b1111 V
1\
1[
b1101 U
b1101 >
b1101 T
b1111 "
b1111 R
b1101 '
b1101 6
b1101 g
b1101 4
b101101 1
b101101 2
b1110 .
1)
b1110 +
#460000
1%
1A
0$
1!
0#
0e
0@
1W
0b
1X
0\
b0 ?
b0 V
0_
0[
1^
b1110 U
b1110 >
b1110 T
b0 "
b0 R
b1110 '
b1110 6
b1110 g
b1110 4
b101110 1
b101110 2
b1111 .
1)
b1111 +
#470000
0!
b1 "
b1 R
b1 ?
b1 V
1\
1[
b1111 U
b1111 >
b1111 T
1%
b1111 '
b1111 6
b1111 g
b1111 4
b101111 1
b101111 2
1,
1(
b10000 .
0)
b0 +
#480000
0X
1_
0W
0$
0A
0b
0e
0!
0Y
0[
0^
0a
0d
b11 ?
b11 V
1\
b0 U
b0 >
b0 T
1Z
b1100 =
b1100 m
b110 :
b110 t
0%
b11 "
b11 R
b0 '
b0 6
b0 g
b11 &
b11 5
b11 S
b11 f
b11 n
b11 3
b0 4
b110000 1
b110000 2
b1 +
b10001 .
1(
0,
#490000
1b
0!
1X
0_
1Y
b100 ?
b100 V
0\
1[
b1 U
b1 >
b1 T
b100 "
b100 R
b1 '
b1 6
b1 g
b1 4
b110001 1
b110001 2
b11 .
0(
b11 +
#500000
0Y
1\
b101 ?
b101 V
0_
0[
1^
b10 U
b10 >
b10 T
b101 "
b101 R
b10 '
b10 6
b10 g
b10 4
b110010 1
b110010 2
b100 .
b100 +
#510000
1_
1Y
b110 ?
b110 V
0\
1[
b11 U
b11 >
b11 T
b110 "
b110 R
b11 '
b11 6
b11 g
b11 4
b110011 1
b110011 2
b101 .
b101 +
#520000
0X
0$
0#
0e
0@
0Y
0W
1\
1_
b111 ?
b111 V
1b
0[
0^
1a
b100 U
b100 >
b100 T
b111 "
b111 R
b100 '
b100 6
b100 g
b100 4
b110100 1
b110100 2
b110 .
b110 +
#530000
1$
1#
1e
1@
1W
0!
0b
1X
0_
1Y
b1000 ?
b1000 V
0\
1[
b101 U
b101 >
b101 T
b1000 "
b1000 R
b101 '
b101 6
b101 g
b101 4
b110101 1
b110101 2
b111 .
b111 +
#540000
0Y
1\
b1001 ?
b1001 V
0_
0[
1^
b110 U
b110 >
b110 T
1#
b1001 "
b1001 R
b110 '
b110 6
b110 g
b110 4
b110110 1
b110110 2
1)
1*
b1000 .
b1000 +
#550000
1_
1Y
b1010 ?
b1010 V
0\
1[
b111 U
b111 >
b111 T
1#
b1010 "
b1010 R
b111 '
b111 6
b111 g
b111 4
b110111 1
b110111 2
b1001 .
1)
1*
b1001 +
#560000
0@
0X
0Y
0W
1$
0%
0A
1\
1_
0b
b1011 ?
b1011 V
1e
0[
0^
0a
1d
b1000 U
b1000 >
b1000 T
0#
b1011 "
b1011 R
b1000 '
b1000 6
b1000 g
b1000 4
b111000 1
b111000 2
b1010 .
1)
1*
b1010 +
#570000
1b
1X
0_
1Y
b1100 ?
b1100 V
0\
1[
b1001 U
b1001 >
b1001 T
b1100 "
b1100 R
b1001 '
b1001 6
b1001 g
b1001 4
b111001 1
b111001 2
b1011 .
1)
0*
b1011 +
#580000
0Y
1\
b1101 ?
b1101 V
0_
0[
1^
b1010 U
b1010 >
b1010 T
b1101 "
b1101 R
b1010 '
b1010 6
b1010 g
b1010 4
b111010 1
b111010 2
b1100 .
1)
b1100 +
#590000
1_
1Y
b1110 ?
b1110 V
0\
1[
b1011 U
b1011 >
b1011 T
b1110 "
b1110 R
b1011 '
b1011 6
b1011 g
b1011 4
b111011 1
b111011 2
b1101 .
1)
b1101 +
#600000
0%
0A
0X
1$
0#
1e
0@
0Y
0W
1\
1_
b1111 ?
b1111 V
1b
0[
0^
1a
b1100 U
b1100 >
b1100 T
b1111 "
b1111 R
b1100 '
b1100 6
b1100 g
b1100 4
b111100 1
b111100 2
b1110 .
1)
b1110 +
#610000
1%
1A
0$
1!
0#
0e
0@
1W
0b
1X
0_
1Y
b0 ?
b0 V
0\
1[
b1101 U
b1101 >
b1101 T
b0 "
b0 R
b1101 '
b1101 6
b1101 g
b1101 4
b111101 1
b111101 2
b1111 .
1)
b1111 +
#620000
0Y
0!
b1 "
b1 R
1\
b1 ?
b1 V
0_
0[
1^
b1110 U
b1110 >
b1110 T
1%
b1110 '
b1110 6
b1110 g
b1110 4
b111110 1
b111110 2
1,
1(
b10000 .
0)
b0 +
#630000
1_
0!
1Y
b10 ?
b10 V
0\
1[
b1111 U
b1111 >
b1111 T
1%
b10 "
b10 R
b1111 '
b1111 6
b1111 g
b1111 4
b111111 1
b111111 2
b1 +
b10001 .
1(
0,
#640000
0W
0#
0@
0X
0$
0A
0e
0Y
0[
0^
0a
0d
0\
0_
b100 ?
b100 V
1b
b0 U
b0 >
b0 T
0Z
0]
1`
b1011 =
b1011 m
b1000 :
b1000 t
0%
b100 "
b100 R
b0 '
b0 6
b0 g
b100 &
b100 5
b100 S
b100 f
b100 n
b100 3
b0 4
b1000000 1
b1000000 2
b10010 .
1(
b10 +
#650000
b101 ?
b101 V
1\
1[
b1 U
b1 >
b1 T
b101 "
b101 R
b1 '
b1 6
b1 g
b1 4
b1000001 1
b1000001 2
b100 .
0(
b100 +
#660000
0\
b110 ?
b110 V
1_
0[
1^
b10 U
b10 >
b10 T
b110 "
b110 R
b10 '
b10 6
b10 g
b10 4
b1000010 1
b1000010 2
b101 .
b101 +
#670000
b111 ?
b111 V
1\
1[
b11 U
b11 >
b11 T
b111 "
b111 R
b11 '
b11 6
b11 g
b11 4
b1000011 1
b1000011 2
b110 .
b110 +
#680000
1$
1#
1e
1@
0!
1W
0\
0_
b1000 ?
b1000 V
0b
0[
0^
1a
b100 U
b100 >
b100 T
b1000 "
b1000 R
b100 '
b100 6
b100 g
b100 4
b1000100 1
b1000100 2
b111 .
b111 +
#690000
b1001 ?
b1001 V
1\
1[
b101 U
b101 >
b101 T
1#
b1001 "
b1001 R
b101 '
b101 6
b101 g
b101 4
b1000101 1
b1000101 2
1)
1*
b1000 .
b1000 +
#700000
0\
b1010 ?
b1010 V
1_
0[
1^
b110 U
b110 >
b110 T
1#
b1010 "
b1010 R
b110 '
b110 6
b110 g
b110 4
b1000110 1
b1000110 2
b1001 .
1)
1*
b1001 +
#710000
b1011 ?
b1011 V
1\
1[
b111 U
b111 >
b111 T
1#
b1011 "
b1011 R
b111 '
b111 6
b111 g
b111 4
b1000111 1
b1000111 2
b1010 .
1)
1*
b1010 +
#720000
0@
0W
1$
0%
0A
0\
0_
1b
b1100 ?
b1100 V
1e
0[
0^
0a
1d
b1000 U
b1000 >
b1000 T
0#
b1100 "
b1100 R
b1000 '
b1000 6
b1000 g
b1000 4
b1001000 1
b1001000 2
b1011 .
1)
1*
b1011 +
#730000
b1101 ?
b1101 V
1\
1[
b1001 U
b1001 >
b1001 T
b1101 "
b1101 R
b1001 '
b1001 6
b1001 g
b1001 4
b1001001 1
b1001001 2
b1100 .
1)
0*
b1100 +
#740000
0\
b1110 ?
b1110 V
1_
0[
1^
b1010 U
b1010 >
b1010 T
b1110 "
b1110 R
b1010 '
b1010 6
b1010 g
b1010 4
b1001010 1
b1001010 2
b1101 .
1)
b1101 +
#750000
b1111 ?
b1111 V
1\
1[
b1011 U
b1011 >
b1011 T
b1111 "
b1111 R
b1011 '
b1011 6
b1011 g
b1011 4
b1001011 1
b1001011 2
b1110 .
1)
b1110 +
#760000
1%
1A
0$
1!
0#
0e
0@
1W
0\
0_
b0 ?
b0 V
0b
0[
0^
1a
b1100 U
b1100 >
b1100 T
b0 "
b0 R
b1100 '
b1100 6
b1100 g
b1100 4
b1001100 1
b1001100 2
b1111 .
1)
b1111 +
#770000
0!
b1 "
b1 R
b1 ?
b1 V
1\
1[
b1101 U
b1101 >
b1101 T
1%
b1101 '
b1101 6
b1101 g
b1101 4
b1001101 1
b1001101 2
1,
1(
b10000 .
0)
b0 +
#780000
0\
b10 ?
b10 V
1_
0[
1^
b1110 U
b1110 >
b1110 T
1%
b10 "
b10 R
b1110 '
b1110 6
b1110 g
b1110 4
b1001110 1
b1001110 2
b1 +
b10001 .
1(
0,
#790000
b11 ?
b11 V
1\
1[
b1111 U
b1111 >
b1111 T
1%
b11 "
b11 R
b1111 '
b1111 6
b1111 g
b1111 4
b1001111 1
b1001111 2
b10010 .
1(
b10 +
#800000
0_
0W
0$
0A
1b
0e
0Y
0[
0^
0a
0d
b101 ?
b101 V
1\
b0 U
b0 >
b0 T
1Z
b1010 =
b1010 m
b1010 :
b1010 t
0%
b101 "
b101 R
b0 '
b0 6
b0 g
b101 &
b101 5
b101 S
b101 f
b101 n
b101 3
b0 4
b1010000 1
b1010000 2
b10011 .
1(
b11 +
#810000
1_
1Y
b110 ?
b110 V
0\
1[
b1 U
b1 >
b1 T
b110 "
b110 R
b1 '
b1 6
b1 g
b1 4
b1010001 1
b1010001 2
b101 .
0(
b101 +
#820000
0$
0#
0e
0@
0W
1b
0Y
0X
1\
b111 ?
b111 V
1_
0[
1^
b10 U
b10 >
b10 T
b111 "
b111 R
b10 '
b10 6
b10 g
b10 4
b1010010 1
b1010010 2
b110 .
b110 +
#830000
1$
1#
1e
1@
0!
1W
0b
1X
0_
1Y
b1000 ?
b1000 V
0\
1[
b11 U
b11 >
b11 T
b1000 "
b1000 R
b11 '
b11 6
b11 g
b11 4
b1010011 1
b1010011 2
b111 .
b111 +
#840000
0Y
0X
1\
0_
b1001 ?
b1001 V
0b
0[
0^
1a
b100 U
b100 >
b100 T
1#
b1001 "
b1001 R
b100 '
b100 6
b100 g
b100 4
b1010100 1
b1010100 2
1)
1*
b1000 .
b1000 +
#850000
1_
1Y
b1010 ?
b1010 V
0\
1[
b101 U
b101 >
b101 T
1#
b1010 "
b1010 R
b101 '
b101 6
b101 g
b101 4
b1010101 1
b1010101 2
b1001 .
1)
1*
b1001 +
#860000
0b
0Y
0X
1\
b1011 ?
b1011 V
1_
0[
1^
b110 U
b110 >
b110 T
1#
b1011 "
b1011 R
b110 '
b110 6
b110 g
b110 4
b1010110 1
b1010110 2
b1010 .
1)
1*
b1010 +
#870000
1b
1X
0_
1Y
b1100 ?
b1100 V
0\
1[
b111 U
b111 >
b111 T
1#
b1100 "
b1100 R
b111 '
b111 6
b111 g
b111 4
b1010111 1
b1010111 2
b1011 .
1)
1*
b1011 +
#880000
0W
0@
0Y
0X
1$
0%
0A
1\
0_
1b
b1101 ?
b1101 V
1e
0[
0^
0a
1d
b1000 U
b1000 >
b1000 T
0#
b1101 "
b1101 R
b1000 '
b1000 6
b1000 g
b1000 4
b1011000 1
b1011000 2
b1100 .
1)
1*
b1100 +
#890000
1_
1Y
b1110 ?
b1110 V
0\
1[
b1001 U
b1001 >
b1001 T
b1110 "
b1110 R
b1001 '
b1001 6
b1001 g
b1001 4
b1011001 1
b1011001 2
b1101 .
1)
0*
b1101 +
#900000
0%
0A
1$
0#
1e
0@
0W
1b
0Y
0X
1\
b1111 ?
b1111 V
1_
0[
1^
b1010 U
b1010 >
b1010 T
b1111 "
b1111 R
b1010 '
b1010 6
b1010 g
b1010 4
b1011010 1
b1011010 2
b1110 .
1)
b1110 +
#910000
1%
1A
0$
1!
0#
0e
0@
1W
0b
1X
0_
1Y
b0 ?
b0 V
0\
1[
b1011 U
b1011 >
b1011 T
b0 "
b0 R
b1011 '
b1011 6
b1011 g
b1011 4
b1011011 1
b1011011 2
b1111 .
1)
b1111 +
#920000
0Y
0X
0!
b1 "
b1 R
1\
0_
b1 ?
b1 V
0b
0[
0^
1a
b1100 U
b1100 >
b1100 T
1%
b1100 '
b1100 6
b1100 g
b1100 4
b1011100 1
b1011100 2
1,
1(
b10000 .
0)
b0 +
#930000
1_
0!
1Y
b10 ?
b10 V
0\
1[
b1101 U
b1101 >
b1101 T
1%
b10 "
b10 R
b1101 '
b1101 6
b1101 g
b1101 4
b1011101 1
b1011101 2
b1 +
b10001 .
1(
0,
#940000
0b
0Y
0X
1\
b11 ?
b11 V
1_
0[
1^
b1110 U
b1110 >
b1110 T
1%
b11 "
b11 R
b1110 '
b1110 6
b1110 g
b1110 4
b1011110 1
b1011110 2
b10010 .
1(
b10 +
#950000
1b
1X
0!
0_
1Y
b100 ?
b100 V
0\
1[
b1111 U
b1111 >
b1111 T
1%
b100 "
b100 R
b1111 '
b1111 6
b1111 g
b1111 4
b1011111 1
b1011111 2
b10011 .
1(
b11 +
#960000
0#
0W
0@
0$
0A
0X
1b
0e
0Y
0[
0^
0a
0d
0\
b110 ?
b110 V
1_
b0 U
b0 >
b0 T
0Z
1]
b1001 =
b1001 m
b1100 :
b1100 t
0%
b110 "
b110 R
b0 '
b0 6
b0 g
b110 &
b110 5
b110 S
b110 f
b110 n
b110 3
b0 4
b1100000 1
b1100000 2
b10100 .
1(
b100 +
#970000
b111 ?
b111 V
1\
1[
b1 U
b1 >
b1 T
b111 "
b111 R
b1 '
b1 6
b1 g
b1 4
b1100001 1
b1100001 2
b110 .
0(
b110 +
#980000
1$
1#
1e
1@
0!
1W
0b
1X
0\
b1000 ?
b1000 V
0_
0[
1^
b10 U
b10 >
b10 T
b1000 "
b1000 R
b10 '
b10 6
b10 g
b10 4
b1100010 1
b1100010 2
b111 .
b111 +
#990000
b1001 ?
b1001 V
1\
1[
b11 U
b11 >
b11 T
1#
b1001 "
b1001 R
b11 '
b11 6
b11 g
b11 4
b1100011 1
b1100011 2
1)
1*
b1000 .
b1000 +
#1000000
0X
0\
1_
b1010 ?
b1010 V
0b
0[
0^
1a
b100 U
b100 >
b100 T
1#
b1010 "
b1010 R
b100 '
b100 6
b100 g
b100 4
b1100100 1
b1100100 2
b1001 .
1)
1*
b1001 +
#1010000
b1011 ?
b1011 V
1\
1[
b101 U
b101 >
b101 T
1#
b1011 "
b1011 R
b101 '
b101 6
b101 g
b101 4
b1100101 1
b1100101 2
b1010 .
1)
1*
b1010 +
#1020000
1b
1X
0\
b1100 ?
b1100 V
0_
0[
1^
b110 U
b110 >
b110 T
1#
b1100 "
b1100 R
b110 '
b110 6
b110 g
b110 4
b1100110 1
b1100110 2
b1011 .
1)
1*
b1011 +
#1030000
b1101 ?
b1101 V
1\
1[
b111 U
b111 >
b111 T
1#
b1101 "
b1101 R
b111 '
b111 6
b111 g
b111 4
b1100111 1
b1100111 2
b1100 .
1)
1*
b1100 +
#1040000
0W
0@
0X
1$
0%
0A
0\
1_
1b
b1110 ?
b1110 V
1e
0[
0^
0a
1d
b1000 U
b1000 >
b1000 T
0#
b1110 "
b1110 R
b1000 '
b1000 6
b1000 g
b1000 4
b1101000 1
b1101000 2
b1101 .
1)
1*
b1101 +
#1050000
b1111 ?
b1111 V
1\
1[
b1001 U
b1001 >
b1001 T
b1111 "
b1111 R
b1001 '
b1001 6
b1001 g
b1001 4
b1101001 1
b1101001 2
b1110 .
1)
0*
b1110 +
#1060000
1%
1A
0$
1!
0#
0e
0@
1W
0b
1X
0\
b0 ?
b0 V
0_
0[
1^
b1010 U
b1010 >
b1010 T
b0 "
b0 R
b1010 '
b1010 6
b1010 g
b1010 4
b1101010 1
b1101010 2
b1111 .
1)
b1111 +
